
2012-05-12 22:57:24: --------------course

2012-05-12 22:57:24: k: MAX_FILE_SIZE v: 134217728

2012-05-12 22:57:24: k: category v: 1

2012-05-12 22:57:24: k: fullname v: aa

2012-05-12 22:57:24: k: shortname v: CF101

2012-05-12 22:57:24: k: idnumber v: 

2012-05-12 22:57:24: k: summary v: 

2012-05-12 22:57:24: k: format v: weeks

2012-05-12 22:57:24: k: numsections v: 10

2012-05-12 22:57:24: k: startdate v: 1336860000

2012-05-12 22:57:24: k: hiddensections v: 0

2012-05-12 22:57:24: k: newsitems v: 5

2012-05-12 22:57:24: k: showgrades v: 1

2012-05-12 22:57:24: k: showreports v: 0

2012-05-12 22:57:24: k: maxbytes v: 134217728

2012-05-12 22:57:24: k: metacourse v: 0

2012-05-12 22:57:24: k: enrol v: 

2012-05-12 22:57:24: k: defaultrole v: 0

2012-05-12 22:57:24: k: enrollable v: 1

2012-05-12 22:57:24: k: enrolstartdate v: 0

2012-05-12 22:57:24: k: enrolstartdisabled v: 1

2012-05-12 22:57:24: k: enrolenddate v: 0

2012-05-12 22:57:24: k: enrolenddisabled v: 1

2012-05-12 22:57:24: k: enrolperiod v: 0

2012-05-12 22:57:24: k: expirynotify v: 0

2012-05-12 22:57:24: k: notifystudents v: 0

2012-05-12 22:57:24: k: expirythreshold v: 864000

2012-05-12 22:57:24: k: groupmode v: 0

2012-05-12 22:57:24: k: groupmodeforce v: 0

2012-05-12 22:57:24: k: visible v: 1

2012-05-12 22:57:24: k: enrolpassword v: 

2012-05-12 22:57:24: k: guest v: 0

2012-05-12 22:57:24: k: lang v: 

2012-05-12 22:57:24: k: restrictmodules v: 0

2012-05-12 22:57:24: k: role_1 v: 

2012-05-12 22:57:24: k: role_2 v: 

2012-05-12 22:57:24: k: role_3 v: 

2012-05-12 22:57:24: k: role_4 v: 

2012-05-12 22:57:24: k: role_5 v: 

2012-05-12 22:57:24: k: role_6 v: 

2012-05-12 22:57:24: k: role_7 v: 

2012-05-12 22:57:24: k: submitbutton v: Save changes

2012-05-12 22:57:24: k: teacher v: Teacher

2012-05-12 22:57:24: k: teachers v: Teachers

2012-05-12 22:57:24: k: student v: Student

2012-05-12 22:57:24: k: students v: Students

2012-05-12 22:57:24: k: password v: 

2012-05-12 22:57:24: k: timemodified v: 1336856243

2012-05-12 22:57:24: k: timecreated v: 1336856243

2012-05-12 22:57:24: k: sortorder v: 100

2012-05-12 22:57:24: ***insert_table_to_rdf table:course

2012-05-12 22:57:24: ***insert_table_to_rdf service:insert/table

2012-05-12 22:57:24: ***insert_table_to_rdf data:{"sessionid":"r4ev7jrus429t2v91kno851d14","action":"insert","tablename":"course","id":"2","dataobject":"{\"MAX_FILE_SIZE\":\"134217728\",\"category\":\"1\",\"fullname\":\"aa\",\"shortname\":\"CF101\",\"idnumber\":\"\",\"summary\":\"\",\"format\":\"weeks\",\"numsections\":\"10\",\"startdate\":\"1336860000\",\"hiddensections\":\"0\",\"newsitems\":\"5\",\"showgrades\":\"1\",\"showreports\":\"0\",\"maxbytes\":\"134217728\",\"metacourse\":\"0\",\"enrol\":\"\",\"defaultrole\":\"0\",\"enrollable\":\"1\",\"enrolstartdate\":0,\"enrolstartdisabled\":\"1\",\"enrolenddate\":0,\"enrolenddisabled\":\"1\",\"enrolperiod\":\"0\",\"expirynotify\":\"0\",\"notifystudents\":\"0\",\"expirythreshold\":\"864000\",\"groupmode\":\"0\",\"groupmodeforce\":\"0\",\"visible\":\"1\",\"enrolpassword\":\"\",\"guest\":\"0\",\"lang\":\"\",\"restrictmodules\":0,\"role_1\":\"\",\"role_2\":\"\",\"role_3\":\"\",\"role_4\":\"\",\"role_5\":\"\",\"role_6\":\"\",\"role_7\":\"\",\"submitbutton\":\"Save changes\",\"teacher\":\"Teacher\",\"teachers\":\"Teachers\",\"student\":\"Student\",\"students\":\"Students\",\"password\":\"\",\"timemodified\":1336856243,\"timecreated\":1336856243,\"sortorder\":100}","addon":"{\"additionaldata\":\"no\"}"}

2012-05-12 22:57:24: --------------context

2012-05-12 22:57:24: k: contextlevel v: 50

2012-05-12 22:57:24: k: instanceid v: 2

2012-05-12 22:57:24: k: depth v: 3

2012-05-12 22:57:24: --------------block_instance

2012-05-12 22:57:24: k: blockid v: 21

2012-05-12 22:57:24: k: pageid v: 2

2012-05-12 22:57:24: k: pagetype v: course-view

2012-05-12 22:57:24: k: position v: l

2012-05-12 22:57:24: k: weight v: 0

2012-05-12 22:57:24: k: visible v: 1

2012-05-12 22:57:24: k: configdata v: 

2012-05-12 22:57:24: --------------block_instance

2012-05-12 22:57:24: k: blockid v: 1

2012-05-12 22:57:24: k: pageid v: 2

2012-05-12 22:57:24: k: pagetype v: course-view

2012-05-12 22:57:24: k: position v: l

2012-05-12 22:57:24: k: weight v: 1

2012-05-12 22:57:24: k: visible v: 1

2012-05-12 22:57:24: k: configdata v: 

2012-05-12 22:57:24: --------------block_instance

2012-05-12 22:57:24: k: blockid v: 26

2012-05-12 22:57:24: k: pageid v: 2

2012-05-12 22:57:24: k: pagetype v: course-view

2012-05-12 22:57:24: k: position v: l

2012-05-12 22:57:24: k: weight v: 2

2012-05-12 22:57:24: k: visible v: 1

2012-05-12 22:57:24: k: configdata v: 

2012-05-12 22:57:24: --------------block_instance

2012-05-12 22:57:24: k: blockid v: 2

2012-05-12 22:57:24: k: pageid v: 2

2012-05-12 22:57:24: k: pagetype v: course-view

2012-05-12 22:57:24: k: position v: l

2012-05-12 22:57:24: k: weight v: 3

2012-05-12 22:57:24: k: visible v: 1

2012-05-12 22:57:24: k: configdata v: 

2012-05-12 22:57:24: --------------block_instance

2012-05-12 22:57:24: k: blockid v: 9

2012-05-12 22:57:24: k: pageid v: 2

2012-05-12 22:57:24: k: pagetype v: course-view

2012-05-12 22:57:24: k: position v: l

2012-05-12 22:57:24: k: weight v: 4

2012-05-12 22:57:24: k: visible v: 1

2012-05-12 22:57:24: k: configdata v: 

2012-05-12 22:57:24: --------------block_instance

2012-05-12 22:57:24: k: blockid v: 18

2012-05-12 22:57:24: k: pageid v: 2

2012-05-12 22:57:24: k: pagetype v: course-view

2012-05-12 22:57:24: k: position v: r

2012-05-12 22:57:24: k: weight v: 0

2012-05-12 22:57:24: k: visible v: 1

2012-05-12 22:57:24: k: configdata v: 

2012-05-12 22:57:24: --------------block_instance

2012-05-12 22:57:24: k: blockid v: 8

2012-05-12 22:57:24: k: pageid v: 2

2012-05-12 22:57:24: k: pagetype v: course-view

2012-05-12 22:57:24: k: position v: r

2012-05-12 22:57:24: k: weight v: 1

2012-05-12 22:57:24: k: visible v: 1

2012-05-12 22:57:24: k: configdata v: 

2012-05-12 22:57:24: --------------block_instance

2012-05-12 22:57:24: k: blockid v: 23

2012-05-12 22:57:24: k: pageid v: 2

2012-05-12 22:57:24: k: pagetype v: course-view

2012-05-12 22:57:24: k: position v: r

2012-05-12 22:57:24: k: weight v: 2

2012-05-12 22:57:24: k: visible v: 1

2012-05-12 22:57:24: k: configdata v: 

2012-05-12 22:57:24: --------------course_sections

2012-05-12 22:57:24: k: course v: 2

2012-05-12 22:57:24: k: section v: 0

2012-05-12 22:57:24: --------------cache_flags

2012-05-12 22:57:24: k: flagtype v: accesslib/dirtycontexts

2012-05-12 22:57:24: k: name v: /1/3/8

2012-05-12 22:57:24: k: value v: 1

2012-05-12 22:57:24: k: expiry v: 1336863444

2012-05-12 22:57:24: k: timemodified v: 1336856244

2012-05-12 22:57:27: --------------course_display

2012-05-12 22:57:27: k: userid v: 2

2012-05-12 22:57:27: k: course v: 2

2012-05-12 22:57:27: k: display v: 0

2012-05-12 22:57:27: --------------context

2012-05-12 22:57:27: k: contextlevel v: 80

2012-05-12 22:57:27: k: instanceid v: 7

2012-05-12 22:57:27: k: depth v: 4

2012-05-12 22:57:27: --------------context

2012-05-12 22:57:27: k: contextlevel v: 80

2012-05-12 22:57:27: k: instanceid v: 8

2012-05-12 22:57:27: k: depth v: 4

2012-05-12 22:57:27: --------------context

2012-05-12 22:57:27: k: contextlevel v: 80

2012-05-12 22:57:27: k: instanceid v: 9

2012-05-12 22:57:27: k: depth v: 4

2012-05-12 22:57:27: --------------context

2012-05-12 22:57:27: k: contextlevel v: 80

2012-05-12 22:57:27: k: instanceid v: 10

2012-05-12 22:57:27: k: depth v: 4

2012-05-12 22:57:27: --------------context

2012-05-12 22:57:27: k: contextlevel v: 80

2012-05-12 22:57:27: k: instanceid v: 11

2012-05-12 22:57:27: k: depth v: 4

2012-05-12 22:57:27: --------------course_sections

2012-05-12 22:57:27: k: course v: 2

2012-05-12 22:57:27: k: section v: 1

2012-05-12 22:57:27: k: summary v: 

2012-05-12 22:57:27: k: visible v: 1

2012-05-12 22:57:27: --------------course_sections

2012-05-12 22:57:27: k: course v: 2

2012-05-12 22:57:27: k: section v: 2

2012-05-12 22:57:27: k: summary v: 

2012-05-12 22:57:27: k: visible v: 1

2012-05-12 22:57:27: --------------course_sections

2012-05-12 22:57:27: k: course v: 2

2012-05-12 22:57:27: k: section v: 3

2012-05-12 22:57:27: k: summary v: 

2012-05-12 22:57:27: k: visible v: 1

2012-05-12 22:57:27: --------------course_sections

2012-05-12 22:57:27: k: course v: 2

2012-05-12 22:57:27: k: section v: 4

2012-05-12 22:57:27: k: summary v: 

2012-05-12 22:57:27: k: visible v: 1

2012-05-12 22:57:27: --------------course_sections

2012-05-12 22:57:27: k: course v: 2

2012-05-12 22:57:27: k: section v: 5

2012-05-12 22:57:27: k: summary v: 

2012-05-12 22:57:27: k: visible v: 1

2012-05-12 22:57:27: --------------course_sections

2012-05-12 22:57:27: k: course v: 2

2012-05-12 22:57:27: k: section v: 6

2012-05-12 22:57:27: k: summary v: 

2012-05-12 22:57:27: k: visible v: 1

2012-05-12 22:57:27: --------------course_sections

2012-05-12 22:57:27: k: course v: 2

2012-05-12 22:57:27: k: section v: 7

2012-05-12 22:57:27: k: summary v: 

2012-05-12 22:57:27: k: visible v: 1

2012-05-12 22:57:27: --------------course_sections

2012-05-12 22:57:27: k: course v: 2

2012-05-12 22:57:27: k: section v: 8

2012-05-12 22:57:27: k: summary v: 

2012-05-12 22:57:27: k: visible v: 1

2012-05-12 22:57:27: --------------course_sections

2012-05-12 22:57:27: k: course v: 2

2012-05-12 22:57:27: k: section v: 9

2012-05-12 22:57:27: k: summary v: 

2012-05-12 22:57:27: k: visible v: 1

2012-05-12 22:57:27: --------------course_sections

2012-05-12 22:57:27: k: course v: 2

2012-05-12 22:57:27: k: section v: 10

2012-05-12 22:57:27: k: summary v: 

2012-05-12 22:57:27: k: visible v: 1

2012-05-12 22:57:27: --------------context

2012-05-12 22:57:27: k: contextlevel v: 80

2012-05-12 22:57:27: k: instanceid v: 12

2012-05-12 22:57:27: k: depth v: 4

2012-05-12 22:57:27: --------------forum

2012-05-12 22:57:27: k: course v: 2

2012-05-12 22:57:27: k: type v: news

2012-05-12 22:57:27: k: name v: News forum

2012-05-12 22:57:27: k: intro v: General news and announcements

2012-05-12 22:57:27: k: forcesubscribe v: 1

2012-05-12 22:57:27: k: assessed v: 0

2012-05-12 22:57:27: k: timemodified v: 1336856247

2012-05-12 22:57:27: ***insert_table_to_rdf table:forum

2012-05-12 22:57:27: ***insert_table_to_rdf service:insert/table

2012-05-12 22:57:27: ***insert_table_to_rdf data:{"sessionid":"r4ev7jrus429t2v91kno851d14","action":"insert","tablename":"forum","id":"1","dataobject":"{\"course\":\"2\",\"type\":\"news\",\"name\":\"News forum\",\"intro\":\"General news and announcements\",\"forcesubscribe\":1,\"assessed\":0,\"timemodified\":1336856247}","addon":"{\"additionaldata\":\"no\"}"}

2012-05-12 22:57:27: --------------course_modules

2012-05-12 22:57:27: k: course v: 2

2012-05-12 22:57:27: k: module v: 5

2012-05-12 22:57:27: k: instance v: 1

2012-05-12 22:57:27: k: section v: 0

2012-05-12 22:57:27: k: added v: 1336856247

2012-05-12 22:57:27: --------------context

2012-05-12 22:57:27: k: contextlevel v: 70

2012-05-12 22:57:27: k: instanceid v: 1

2012-05-12 22:57:27: k: depth v: 4

2012-05-12 22:57:27: --------------context

2012-05-12 22:57:27: k: contextlevel v: 80

2012-05-12 22:57:27: k: instanceid v: 13

2012-05-12 22:57:27: k: depth v: 4

2012-05-12 22:57:27: --------------context

2012-05-12 22:57:27: k: contextlevel v: 80

2012-05-12 22:57:27: k: instanceid v: 14

2012-05-12 22:57:27: k: depth v: 4

2012-05-12 22:57:33: --------------scale

2012-05-12 22:57:33: k: courseid v: 0

2012-05-12 22:57:33: k: userid v: 0

2012-05-12 22:57:33: k: name v: Separate and Connected ways of knowing

2012-05-12 22:57:33: k: scale v: Mostly Separate Knowing,Separate and Connected,Mostly Connected Knowing

2012-05-12 22:57:33: k: timemodified v: 1336856253

2012-05-12 22:57:33: k: description v: <h1> Ratings </h1>

<p>Individual posts can be rated using a scale based on the theory of <strong>separate and connected knowing</strong>.

This theory may help you to look at human interactions in a new way. It describes two different ways that we can evaluate and learn about the things we see and hear.

Although each of us may use these two methods in different amounts at different times, it may be useful to imagine two people as examples, one who is a mostly separate knower (Jim) and the other a mostly connected knower (Mary).
</p>

<ul>

  <li>Jim likes to remain as \'objective\' as possible without including his feelings and emotions. When in a discussion with other people who may have different ideas, he likes to defend his own ideas, using logic to find holes in his opponent\'s ideas. He is critical of new ideas unless they are proven facts from reputable sources such as textbooks, respected teachers or his own direct experience. Jim is a very <strong>separate knower</strong>.

  </li>

  <li>Mary is more sensitive to other people. She is skilled at empathy and tends to listen and ask questions until she feels she can connect and &quot;understand things from their point of view&quot;. She learns by trying to share the experiences that led to the knowledge she finds in other people. When talking to others, she avoids confrontation and will often try to help the other person if she can see a way to do so, using logical suggestions. Mary is a very <strong>connected knower</strong>.</li>

</ul>

<p>Did you notice in these examples that the separate knower is male and the connected knower is female? Some studies have shown that statistically this tends to be the case, however individual people can be anywhere in the spectrum between these two extremes.

For a collaborative and effective group of learners it may be best if everyone were able to use BOTH ways of knowing.

In a particular situation like an online forum, a single post by a person may exhibit either of these characteristics, or even both. Someone who is generally very connected may post a very separate-sounding message, and vice versa. The purpose of rating each post using this scale is to:
</p>

<ol style=\"list-style:lower-alpha\">

  <li> help you think about these issues when reading other posts </li>

  <li> provide feedback to each author on how they are being seen by others </li>

</ol>

The results are not used towards student assessment in any way, they are just to help improve communication and learning.

<hr />
<p>
In case you\'re interested, here are some references to papers by the authors who originally developed these ideas:
</p>

<ul>
  <li>Belenky, M.F., Clinchy, B.M., Goldberger, N.R., &amp; Tarule, J.M. (1986). 

    Women\'s ways of knowing: the development of self, voice, and mind. New York, 

    NY: Basic Books.</li>

  <li>Clinchy, B.M. (1989a). The development of thoughtfulness in college women: 

    Integrating reason and care. American Behavioural Scientist, 32(6), 647-657.</li>

  <li>Clinchy, B.M. (1989b). On critical thinking &amp; connected knowing. Liberal 

    education, 75(5), 14-19.</li>

  <li>Clinchy, B.M. (1996). Connected and separate knowing; Toward a marriage 

    of two minds. In N.R. Goldberger, Tarule, J.M., Clinchy, B.M. &amp;</li>

  <li>Belenky, M.F. (Eds.), Knowledge, Difference, and Power; Essays inspired 

    by &#8220;Women&#8217;s Ways of Knowing&#8221; (pp. 205-247). New York, NY: 

    Basic Books.</li>

  <li>Galotti, K. M., Clinchy, B. M., Ainsworth, K., Lavin, B., &amp; Mansfield, 

    A. F. (1999). A New Way of Assessing Ways of Knowing: The Attitudes Towards 

    Thinking and Learning Survey (ATTLS). Sex Roles, 40(9/10), 745-766.</li>

  <li>Galotti, K. M., Reimer, R. L., &amp; Drebus, D. W. (2001). Ways of knowing 

    as learning styles: Learning MAGIC with a partner. Sex Roles, 44(7/8), 419-436. 

  </li>

</ul>



2012-05-12 22:57:33: ***insert_table_to_rdf table:scale

2012-05-12 22:57:33: ***insert_table_to_rdf service:insert/table

2012-05-12 22:57:33: ***insert_table_to_rdf data:{"sessionid":"r4ev7jrus429t2v91kno851d14","action":"insert","tablename":"scale","id":"1","dataobject":"{\"courseid\":0,\"userid\":0,\"name\":\"Separate and Connected ways of knowing\",\"scale\":\"Mostly Separate Knowing,Separate and Connected,Mostly Connected Knowing\",\"timemodified\":1336856253,\"description\":\"<h1> Ratings <\\\/h1>\\n\\n<p>Individual posts can be rated using a scale based on the theory of <strong>separate and connected knowing<\\\/strong>.\\n\\nThis theory may help you to look at human interactions in a new way. It describes two different ways that we can evaluate and learn about the things we see and hear.\\n\\nAlthough each of us may use these two methods in different amounts at different times, it may be useful to imagine two people as examples, one who is a mostly separate knower (Jim) and the other a mostly connected knower (Mary).\\n<\\\/p>\\n\\n<ul>\\n\\n  <li>Jim likes to remain as \\\\'objective\\\\' as possible without including his feelings and emotions. When in a discussion with other people who may have different ideas, he likes to defend his own ideas, using logic to find holes in his opponent\\\\'s ideas. He is critical of new ideas unless they are proven facts from reputable sources such as textbooks, respected teachers or his own direct experience. Jim is a very <strong>separate knower<\\\/strong>.\\n\\n  <\\\/li>\\n\\n  <li>Mary is more sensitive to other people. She is skilled at empathy and tends to listen and ask questions until she feels she can connect and &quot;understand things from their point of view&quot;. She learns by trying to share the experiences that led to the knowledge she finds in other people. When talking to others, she avoids confrontation and will often try to help the other person if she can see a way to do so, using logical suggestions. Mary is a very <strong>connected knower<\\\/strong>.<\\\/li>\\n\\n<\\\/ul>\\n\\n<p>Did you notice in these examples that the separate knower is male and the connected knower is female? Some studies have shown that statistically this tends to be the case, however individual people can be anywhere in the spectrum between these two extremes.\\n\\nFor a collaborative and effective group of learners it may be best if everyone were able to use BOTH ways of knowing.\\n\\nIn a particular situation like an online forum, a single post by a person may exhibit either of these characteristics, or even both. Someone who is generally very connected may post a very separate-sounding message, and vice versa. The purpose of rating each post using this scale is to:\\n<\\\/p>\\n\\n<ol style=\\\\\\\"list-style:lower-alpha\\\\\\\">\\n\\n  <li> help you think about these issues when reading other posts <\\\/li>\\n\\n  <li> provide feedback to each author on how they are being seen by others <\\\/li>\\n\\n<\\\/ol>\\n\\nThe results are not used towards student assessment in any way, they are just to help improve communication and learning.\\n\\n<hr \\\/>\\n<p>\\nIn case you\\\\'re interested, here are some references to papers by the authors who originally developed these ideas:\\n<\\\/p>\\n\\n<ul>\\n  <li>Belenky, M.F., Clinchy, B.M., Goldberger, N.R., &amp; Tarule, J.M. (1986). \\n\\n    Women\\\\'s ways of knowing: the development of self, voice, and mind. New York, \\n\\n    NY: Basic Books.<\\\/li>\\n\\n  <li>Clinchy, B.M. (1989a). The development of thoughtfulness in college women: \\n\\n    Integrating reason and care. American Behavioural Scientist, 32(6), 647-657.<\\\/li>\\n\\n  <li>Clinchy, B.M. (1989b). On critical thinking &amp; connected knowing. Liberal \\n\\n    education, 75(5), 14-19.<\\\/li>\\n\\n  <li>Clinchy, B.M. (1996). Connected and separate knowing; Toward a marriage \\n\\n    of two minds. In N.R. Goldberger, Tarule, J.M., Clinchy, B.M. &amp;<\\\/li>\\n\\n  <li>Belenky, M.F. (Eds.), Knowledge, Difference, and Power; Essays inspired \\n\\n    by &#8220;Women&#8217;s Ways of Knowing&#8221; (pp. 205-247). New York, NY: \\n\\n    Basic Books.<\\\/li>\\n\\n  <li>Galotti, K. M., Clinchy, B. M., Ainsworth, K., Lavin, B., &amp; Mansfield, \\n\\n    A. F. (1999). A New Way of Assessing Ways of Knowing: The Attitudes Towards \\n\\n    Thinking and Learning Survey (ATTLS). Sex Roles, 40(9\\\/10), 745-766.<\\\/li>\\n\\n  <li>Galotti, K. M., Reimer, R. L., &amp; Drebus, D. W. (2001). Ways of knowing \\n\\n    as learning styles: Learning MAGIC with a partner. Sex Roles, 44(7\\\/8), 419-436. \\n\\n  <\\\/li>\\n\\n<\\\/ul>\\n\\n\"}","addon":"{\"additionaldata\":\"no\"}"}

2012-05-12 22:57:33: --------------grade_categories

2012-05-12 22:57:33: k: courseid v: 2

2012-05-12 22:57:33: k: parent v: 

2012-05-12 22:57:33: k: depth v: 0

2012-05-12 22:57:33: k: path v: 

2012-05-12 22:57:33: k: fullname v: ?

2012-05-12 22:57:33: k: aggregation v: 11

2012-05-12 22:57:33: k: keephigh v: 0

2012-05-12 22:57:33: k: droplow v: 0

2012-05-12 22:57:33: k: aggregateonlygraded v: 1

2012-05-12 22:57:33: k: aggregateoutcomes v: 0

2012-05-12 22:57:33: k: aggregatesubcats v: 0

2012-05-12 22:57:33: k: timecreated v: 1336856253

2012-05-12 22:57:33: k: timemodified v: 1336856253

2012-05-12 22:57:33: --------------grade_categories_history

2012-05-12 22:57:33: k: courseid v: 2

2012-05-12 22:57:33: k: parent v: 

2012-05-12 22:57:33: k: depth v: 0

2012-05-12 22:57:33: k: path v: 

2012-05-12 22:57:33: k: fullname v: ?

2012-05-12 22:57:33: k: aggregation v: 11

2012-05-12 22:57:33: k: keephigh v: 0

2012-05-12 22:57:33: k: droplow v: 0

2012-05-12 22:57:33: k: aggregateonlygraded v: 1

2012-05-12 22:57:33: k: aggregateoutcomes v: 0

2012-05-12 22:57:33: k: aggregatesubcats v: 0

2012-05-12 22:57:33: k: timemodified v: 1336856253

2012-05-12 22:57:33: k: action v: 1

2012-05-12 22:57:33: k: oldid v: 1

2012-05-12 22:57:33: k: source v: system

2012-05-12 22:57:33: k: loggeduser v: 2

2012-05-12 22:57:33: --------------grade_items

2012-05-12 22:57:33: k: courseid v: 2

2012-05-12 22:57:33: k: categoryid v: 

2012-05-12 22:57:33: k: itemname v: 

2012-05-12 22:57:33: k: itemtype v: course

2012-05-12 22:57:33: k: itemmodule v: 

2012-05-12 22:57:33: k: iteminstance v: 1

2012-05-12 22:57:33: k: itemnumber v: 

2012-05-12 22:57:33: k: iteminfo v: 

2012-05-12 22:57:33: k: idnumber v: 

2012-05-12 22:57:33: k: calculation v: 

2012-05-12 22:57:33: k: gradetype v: 1

2012-05-12 22:57:33: k: grademax v: 100

2012-05-12 22:57:33: k: grademin v: 0

2012-05-12 22:57:33: k: scaleid v: 

2012-05-12 22:57:33: k: outcomeid v: 

2012-05-12 22:57:33: k: gradepass v: 0

2012-05-12 22:57:33: k: multfactor v: 1

2012-05-12 22:57:33: k: plusfactor v: 0

2012-05-12 22:57:33: k: aggregationcoef v: 0

2012-05-12 22:57:33: k: sortorder v: 1

2012-05-12 22:57:33: k: display v: 0

2012-05-12 22:57:33: k: decimals v: 

2012-05-12 22:57:33: k: hidden v: 0

2012-05-12 22:57:33: k: locked v: 0

2012-05-12 22:57:33: k: locktime v: 0

2012-05-12 22:57:33: k: needsupdate v: 1

2012-05-12 22:57:33: k: timecreated v: 1336856253

2012-05-12 22:57:33: k: timemodified v: 1336856253

2012-05-12 22:57:33: --------------grade_items_history

2012-05-12 22:57:33: k: courseid v: 2

2012-05-12 22:57:33: k: categoryid v: 

2012-05-12 22:57:33: k: itemname v: 

2012-05-12 22:57:33: k: itemtype v: course

2012-05-12 22:57:33: k: itemmodule v: 

2012-05-12 22:57:33: k: iteminstance v: 1

2012-05-12 22:57:33: k: itemnumber v: 

2012-05-12 22:57:33: k: iteminfo v: 

2012-05-12 22:57:33: k: idnumber v: 

2012-05-12 22:57:33: k: calculation v: 

2012-05-12 22:57:33: k: gradetype v: 1

2012-05-12 22:57:33: k: grademax v: 100.00000

2012-05-12 22:57:33: k: grademin v: 0.00000

2012-05-12 22:57:33: k: scaleid v: 

2012-05-12 22:57:33: k: outcomeid v: 

2012-05-12 22:57:33: k: gradepass v: 0.00000

2012-05-12 22:57:33: k: multfactor v: 1.00000

2012-05-12 22:57:33: k: plusfactor v: 0.00000

2012-05-12 22:57:33: k: aggregationcoef v: 0.00000

2012-05-12 22:57:33: k: sortorder v: 1

2012-05-12 22:57:33: k: display v: 0

2012-05-12 22:57:33: k: decimals v: 

2012-05-12 22:57:33: k: hidden v: 0

2012-05-12 22:57:33: k: locked v: 0

2012-05-12 22:57:33: k: locktime v: 0

2012-05-12 22:57:33: k: needsupdate v: 1

2012-05-12 22:57:33: k: timemodified v: 1336856253

2012-05-12 22:57:33: k: action v: 1

2012-05-12 22:57:33: k: oldid v: 1

2012-05-12 22:57:33: k: source v: system

2012-05-12 22:57:33: k: loggeduser v: 2

2012-05-12 22:57:33: --------------grade_categories

2012-05-12 22:57:33: k: courseid v: 2

2012-05-12 22:57:33: k: parent v: 

2012-05-12 22:57:33: k: depth v: 1

2012-05-12 22:57:33: k: path v: /1/

2012-05-12 22:57:33: k: fullname v: ?

2012-05-12 22:57:33: k: aggregation v: 11

2012-05-12 22:57:33: k: keephigh v: 0

2012-05-12 22:57:33: k: droplow v: 0

2012-05-12 22:57:33: k: aggregateonlygraded v: 1

2012-05-12 22:57:33: k: aggregateoutcomes v: 0

2012-05-12 22:57:33: k: aggregatesubcats v: 0

2012-05-12 22:57:33: k: id v: 1

2012-05-12 22:57:33: k: timecreated v: 1336856253

2012-05-12 22:57:33: k: timemodified v: 1336856253

2012-05-12 22:57:33: --------------grade_categories_history

2012-05-12 22:57:33: k: courseid v: 2

2012-05-12 22:57:33: k: parent v: 

2012-05-12 22:57:33: k: depth v: 1

2012-05-12 22:57:33: k: path v: /1/

2012-05-12 22:57:33: k: fullname v: ?

2012-05-12 22:57:33: k: aggregation v: 11

2012-05-12 22:57:33: k: keephigh v: 0

2012-05-12 22:57:33: k: droplow v: 0

2012-05-12 22:57:33: k: aggregateonlygraded v: 1

2012-05-12 22:57:33: k: aggregateoutcomes v: 0

2012-05-12 22:57:33: k: aggregatesubcats v: 0

2012-05-12 22:57:33: k: timemodified v: 1336856253

2012-05-12 22:57:33: k: action v: 2

2012-05-12 22:57:33: k: oldid v: 1

2012-05-12 22:57:33: k: source v: system

2012-05-12 22:57:33: k: loggeduser v: 2

2012-05-12 22:57:41: --------------modelling

2012-05-12 22:57:41: k: MAX_FILE_SIZE v: 134217728

2012-05-12 22:57:41: k: name v: aa

2012-05-12 22:57:41: k: description v: dd 

2012-05-12 22:57:41: k: timeopen v: 1336773600

2012-05-12 22:57:41: k: timeclose v: 1344722400

2012-05-12 22:57:41: k: timelate v: 1344722400

2012-05-12 22:57:41: k: totalpoints v: 100

2012-05-12 22:57:41: k: projecttype v: individual

2012-05-12 22:57:41: k: selectedproject v: 

2012-05-12 22:57:41: k: selectedconcepts v: 

2012-05-12 22:57:41: k: assesstimestart v: 0

2012-05-12 22:57:41: k: assesstimefinish v: 0

2012-05-12 22:57:41: k: course v: 2

2012-05-12 22:57:41: k: coursemodule v: 

2012-05-12 22:57:41: k: section v: 0

2012-05-12 22:57:41: k: module v: 12

2012-05-12 22:57:41: k: modulename v: modelling

2012-05-12 22:57:41: k: instance v: 

2012-05-12 22:57:41: k: add v: modelling

2012-05-12 22:57:41: k: update v: 0

2012-05-12 22:57:41: k: return v: 0

2012-05-12 22:57:41: k: visible v: 1

2012-05-12 22:57:41: k: groupmode v: 0

2012-05-12 22:57:41: k: cmidnumber v: 

2012-05-12 22:57:41: k: submitbutton2 v: Save and return to course

2012-05-12 22:57:41: k: groupingid v: 0

2012-05-12 22:57:41: k: groupmembersonly v: 0

2012-05-12 22:57:41: k: filename v: none

2012-05-12 22:57:41: k: useprojectdates v: false

2012-05-12 22:57:41: k: ratingtime v: 0

2012-05-12 22:57:41: k: assessed v: 0

2012-05-12 22:57:41: k: timemodified v: 1336856261

2012-05-12 22:57:41: ***insert_table_to_rdf table:modelling

2012-05-12 22:57:41: ***insert_table_to_rdf service:insert/table

2012-05-12 22:57:41: ***insert_table_to_rdf data:{"sessionid":"r4ev7jrus429t2v91kno851d14","action":"insert","tablename":"modelling","id":"1","dataobject":"{\"MAX_FILE_SIZE\":\"134217728\",\"name\":\"aa\",\"description\":\"\",\"timeopen\":\"1336773600\",\"timeclose\":\"1344722400\",\"timelate\":\"1344722400\",\"totalpoints\":\"100\",\"projecttype\":\"individual\",\"selectedproject\":\"\",\"selectedconcepts\":\"\",\"assesstimestart\":0,\"assesstimefinish\":0,\"course\":\"2\",\"coursemodule\":\"\",\"section\":\"0\",\"module\":\"12\",\"modulename\":\"modelling\",\"instance\":\"\",\"add\":\"modelling\",\"update\":\"0\",\"return\":\"0\",\"visible\":\"1\",\"groupmode\":\"0\",\"cmidnumber\":\"\",\"submitbutton2\":\"Save and return to course\",\"groupingid\":0,\"groupmembersonly\":0,\"filename\":\"none\",\"useprojectdates\":\"false\",\"ratingtime\":0,\"assessed\":0,\"timemodified\":1336856261}","addon":"{\"courseuri\":null,\"scaleuri\":null,\"groupinguri\":null}"}

2012-05-12 22:57:41: --------------course_modules

2012-05-12 22:57:41: k: MAX_FILE_SIZE v: 134217728

2012-05-12 22:57:41: k: name v: aa

2012-05-12 22:57:41: k: description v: 

2012-05-12 22:57:41: k: timeopen v: 1336773600

2012-05-12 22:57:41: k: timeclose v: 1344722400

2012-05-12 22:57:41: k: timelate v: 1344722400

2012-05-12 22:57:41: k: totalpoints v: 100

2012-05-12 22:57:41: k: projecttype v: individual

2012-05-12 22:57:41: k: selectedproject v: 

2012-05-12 22:57:41: k: selectedconcepts v: 

2012-05-12 22:57:41: k: assesstimestart v: 0

2012-05-12 22:57:41: k: assesstimefinish v: 0

2012-05-12 22:57:41: k: course v: 2

2012-05-12 22:57:41: k: coursemodule v: 

2012-05-12 22:57:41: k: section v: 0

2012-05-12 22:57:41: k: module v: 12

2012-05-12 22:57:41: k: modulename v: modelling

2012-05-12 22:57:41: k: instance v: 1

2012-05-12 22:57:41: k: add v: modelling

2012-05-12 22:57:41: k: update v: 0

2012-05-12 22:57:41: k: return v: 0

2012-05-12 22:57:41: k: visible v: 1

2012-05-12 22:57:41: k: groupmode v: 0

2012-05-12 22:57:41: k: cmidnumber v: 

2012-05-12 22:57:41: k: submitbutton2 v: Save and return to course

2012-05-12 22:57:41: k: groupingid v: 0

2012-05-12 22:57:41: k: groupmembersonly v: 0

2012-05-12 22:57:41: k: filename v: none

2012-05-12 22:57:41: k: useprojectdates v: false

2012-05-12 22:57:41: k: ratingtime v: 0

2012-05-12 22:57:41: k: assessed v: 0

2012-05-12 22:57:41: k: timemodified v: 1336856261

2012-05-12 22:57:41: k: added v: 1336856261

2012-05-12 22:57:41: --------------context

2012-05-12 22:57:41: k: contextlevel v: 70

2012-05-12 22:57:41: k: instanceid v: 2

2012-05-12 22:57:41: k: depth v: 4
