
2012-05-12 22:57:05: actionupdate_table_to_rdf 2:user

2012-05-12 22:57:05: table is processing:user

2012-05-12 22:57:05: table to insert on url:

2012-05-12 22:57:05: ***insert_table_to_rdf 5:user

2012-05-12 22:57:05: actioninsert_table_to_rdf 2:user_preferences

2012-05-12 22:57:05: actioninsert_table_to_rdf 2:config

2012-05-12 22:57:05: actioninsert_table_to_rdf 2:config

2012-05-12 22:57:05: actioninsert_table_to_rdf 2:glossary_formats

2012-05-12 22:57:05: actioninsert_table_to_rdf 2:glossary_formats

2012-05-12 22:57:05: actioninsert_table_to_rdf 2:glossary_formats

2012-05-12 22:57:05: actioninsert_table_to_rdf 2:glossary_formats

2012-05-12 22:57:05: actioninsert_table_to_rdf 2:glossary_formats

2012-05-12 22:57:05: actioninsert_table_to_rdf 2:glossary_formats

2012-05-12 22:57:05: actioninsert_table_to_rdf 2:glossary_formats

2012-05-12 22:57:05: actioninsert_table_to_rdf 2:config

2012-05-12 22:57:05: actioninsert_table_to_rdf 2:config

2012-05-12 22:57:05: actioninsert_table_to_rdf 2:config

2012-05-12 22:57:05: actioninsert_table_to_rdf 2:config

2012-05-12 22:57:05: actioninsert_table_to_rdf 2:config

2012-05-12 22:57:05: actioninsert_table_to_rdf 2:backup_config

2012-05-12 22:57:05: actioninsert_table_to_rdf 2:backup_config

2012-05-12 22:57:05: actioninsert_table_to_rdf 2:backup_config

2012-05-12 22:57:05: actioninsert_table_to_rdf 2:backup_config

2012-05-12 22:57:05: actioninsert_table_to_rdf 2:backup_config

2012-05-12 22:57:05: actioninsert_table_to_rdf 2:backup_config

2012-05-12 22:57:05: actioninsert_table_to_rdf 2:backup_config

2012-05-12 22:57:05: actioninsert_table_to_rdf 2:backup_config

2012-05-12 22:57:05: actioninsert_table_to_rdf 2:backup_config

2012-05-12 22:57:05: actioninsert_table_to_rdf 2:backup_config

2012-05-12 22:57:05: actioninsert_table_to_rdf 2:backup_config

2012-05-12 22:57:05: actioninsert_table_to_rdf 2:backup_config

2012-05-12 22:57:05: actioninsert_table_to_rdf 2:backup_config

2012-05-12 22:57:05: actioninsert_table_to_rdf 2:backup_config

2012-05-12 22:57:05: actioninsert_table_to_rdf 2:backup_config

2012-05-12 22:57:05: actioninsert_table_to_rdf 2:backup_config

2012-05-12 22:57:05: actioninsert_table_to_rdf 2:backup_config

2012-05-12 22:57:05: actioninsert_table_to_rdf 2:config

2012-05-12 22:57:05: actioninsert_table_to_rdf 2:config

2012-05-12 22:57:05: actioninsert_table_to_rdf 2:config

2012-05-12 22:57:05: actioninsert_table_to_rdf 2:config

2012-05-12 22:57:05: actioninsert_table_to_rdf 2:config

2012-05-12 22:57:05: actioninsert_table_to_rdf 2:config

2012-05-12 22:57:05: actioninsert_table_to_rdf 2:config

2012-05-12 22:57:05: actioninsert_table_to_rdf 2:config

2012-05-12 22:57:05: actioninsert_table_to_rdf 2:config

2012-05-12 22:57:05: actioninsert_table_to_rdf 2:config

2012-05-12 22:57:05: actioninsert_table_to_rdf 2:config

2012-05-12 22:57:05: actioninsert_table_to_rdf 2:config

2012-05-12 22:57:05: actioninsert_table_to_rdf 2:config

2012-05-12 22:57:05: actioninsert_table_to_rdf 2:config

2012-05-12 22:57:05: actioninsert_table_to_rdf 2:config

2012-05-12 22:57:05: actioninsert_table_to_rdf 2:config

2012-05-12 22:57:05: actioninsert_table_to_rdf 2:config

2012-05-12 22:57:05: actioninsert_table_to_rdf 2:config

2012-05-12 22:57:05: actioninsert_table_to_rdf 2:config

2012-05-12 22:57:05: actioninsert_table_to_rdf 2:config

2012-05-12 22:57:05: actioninsert_table_to_rdf 2:config

2012-05-12 22:57:05: actioninsert_table_to_rdf 2:config

2012-05-12 22:57:05: actioninsert_table_to_rdf 2:config

2012-05-12 22:57:05: actioninsert_table_to_rdf 2:config

2012-05-12 22:57:05: actioninsert_table_to_rdf 2:config

2012-05-12 22:57:05: actioninsert_table_to_rdf 2:config

2012-05-12 22:57:05: actioninsert_table_to_rdf 2:config

2012-05-12 22:57:05: actioninsert_table_to_rdf 2:config

2012-05-12 22:57:05: actioninsert_table_to_rdf 2:config

2012-05-12 22:57:05: actioninsert_table_to_rdf 2:config

2012-05-12 22:57:05: actioninsert_table_to_rdf 2:config

2012-05-12 22:57:05: actioninsert_table_to_rdf 2:config

2012-05-12 22:57:05: actioninsert_table_to_rdf 2:config

2012-05-12 22:57:05: actioninsert_table_to_rdf 2:config

2012-05-12 22:57:05: actioninsert_table_to_rdf 2:config

2012-05-12 22:57:05: actioninsert_table_to_rdf 2:config

2012-05-12 22:57:05: actioninsert_table_to_rdf 2:config

2012-05-12 22:57:05: actioninsert_table_to_rdf 2:config

2012-05-12 22:57:05: actioninsert_table_to_rdf 2:config

2012-05-12 22:57:05: actioninsert_table_to_rdf 2:config

2012-05-12 22:57:05: actioninsert_table_to_rdf 2:config

2012-05-12 22:57:05: actioninsert_table_to_rdf 2:config

2012-05-12 22:57:05: actioninsert_table_to_rdf 2:config

2012-05-12 22:57:05: actioninsert_table_to_rdf 2:config

2012-05-12 22:57:05: actioninsert_table_to_rdf 2:config

2012-05-12 22:57:05: actioninsert_table_to_rdf 2:config

2012-05-12 22:57:05: actioninsert_table_to_rdf 2:config

2012-05-12 22:57:05: actioninsert_table_to_rdf 2:config

2012-05-12 22:57:05: actioninsert_table_to_rdf 2:config

2012-05-12 22:57:05: actioninsert_table_to_rdf 2:config

2012-05-12 22:57:05: actioninsert_table_to_rdf 2:config

2012-05-12 22:57:05: actioninsert_table_to_rdf 2:config

2012-05-12 22:57:05: actioninsert_table_to_rdf 2:config

2012-05-12 22:57:05: actioninsert_table_to_rdf 2:config

2012-05-12 22:57:05: actioninsert_table_to_rdf 2:config

2012-05-12 22:57:05: actioninsert_table_to_rdf 2:config

2012-05-12 22:57:05: actioninsert_table_to_rdf 2:config

2012-05-12 22:57:05: actioninsert_table_to_rdf 2:config

2012-05-12 22:57:05: actioninsert_table_to_rdf 2:config

2012-05-12 22:57:05: actioninsert_table_to_rdf 2:config

2012-05-12 22:57:05: actioninsert_table_to_rdf 2:config

2012-05-12 22:57:05: actioninsert_table_to_rdf 2:config

2012-05-12 22:57:05: actioninsert_table_to_rdf 2:config

2012-05-12 22:57:05: actioninsert_table_to_rdf 2:config

2012-05-12 22:57:05: actioninsert_table_to_rdf 2:config

2012-05-12 22:57:05: actioninsert_table_to_rdf 2:config

2012-05-12 22:57:05: actioninsert_table_to_rdf 2:config

2012-05-12 22:57:05: actioninsert_table_to_rdf 2:config

2012-05-12 22:57:05: actioninsert_table_to_rdf 2:config

2012-05-12 22:57:05: actioninsert_table_to_rdf 2:config

2012-05-12 22:57:05: actioninsert_table_to_rdf 2:config

2012-05-12 22:57:05: actioninsert_table_to_rdf 2:config

2012-05-12 22:57:05: actioninsert_table_to_rdf 2:config

2012-05-12 22:57:05: actioninsert_table_to_rdf 2:config

2012-05-12 22:57:05: actioninsert_table_to_rdf 2:config

2012-05-12 22:57:05: actioninsert_table_to_rdf 2:config

2012-05-12 22:57:05: actioninsert_table_to_rdf 2:config

2012-05-12 22:57:05: actioninsert_table_to_rdf 2:config

2012-05-12 22:57:05: actioninsert_table_to_rdf 2:config

2012-05-12 22:57:05: actioninsert_table_to_rdf 2:config

2012-05-12 22:57:05: actioninsert_table_to_rdf 2:config

2012-05-12 22:57:05: actioninsert_table_to_rdf 2:config

2012-05-12 22:57:05: actioninsert_table_to_rdf 2:config

2012-05-12 22:57:05: actioninsert_table_to_rdf 2:config

2012-05-12 22:57:05: actioninsert_table_to_rdf 2:config

2012-05-12 22:57:05: actioninsert_table_to_rdf 2:config

2012-05-12 22:57:05: actioninsert_table_to_rdf 2:config

2012-05-12 22:57:05: actioninsert_table_to_rdf 2:config

2012-05-12 22:57:05: actioninsert_table_to_rdf 2:config

2012-05-12 22:57:05: actioninsert_table_to_rdf 2:config

2012-05-12 22:57:05: actioninsert_table_to_rdf 2:config

2012-05-12 22:57:05: actioninsert_table_to_rdf 2:config

2012-05-12 22:57:05: actioninsert_table_to_rdf 2:config

2012-05-12 22:57:05: actioninsert_table_to_rdf 2:config

2012-05-12 22:57:05: actioninsert_table_to_rdf 2:config

2012-05-12 22:57:05: actioninsert_table_to_rdf 2:config

2012-05-12 22:57:05: actioninsert_table_to_rdf 2:config

2012-05-12 22:57:05: actioninsert_table_to_rdf 2:config

2012-05-12 22:57:05: actioninsert_table_to_rdf 2:config

2012-05-12 22:57:05: actioninsert_table_to_rdf 2:config

2012-05-12 22:57:05: actioninsert_table_to_rdf 2:config

2012-05-12 22:57:05: actioninsert_table_to_rdf 2:config

2012-05-12 22:57:05: actioninsert_table_to_rdf 2:config

2012-05-12 22:57:05: actioninsert_table_to_rdf 2:config

2012-05-12 22:57:05: actioninsert_table_to_rdf 2:config

2012-05-12 22:57:05: actioninsert_table_to_rdf 2:config

2012-05-12 22:57:05: actioninsert_table_to_rdf 2:config

2012-05-12 22:57:05: actioninsert_table_to_rdf 2:config

2012-05-12 22:57:05: actioninsert_table_to_rdf 2:config

2012-05-12 22:57:05: actioninsert_table_to_rdf 2:config

2012-05-12 22:57:05: actioninsert_table_to_rdf 2:config

2012-05-12 22:57:05: actioninsert_table_to_rdf 2:config

2012-05-12 22:57:05: actioninsert_table_to_rdf 2:config

2012-05-12 22:57:05: actioninsert_table_to_rdf 2:config

2012-05-12 22:57:05: actioninsert_table_to_rdf 2:config

2012-05-12 22:57:05: actioninsert_table_to_rdf 2:config

2012-05-12 22:57:05: actioninsert_table_to_rdf 2:config

2012-05-12 22:57:05: actioninsert_table_to_rdf 2:config

2012-05-12 22:57:05: actioninsert_table_to_rdf 2:config

2012-05-12 22:57:05: actioninsert_table_to_rdf 2:config

2012-05-12 22:57:05: actioninsert_table_to_rdf 2:config

2012-05-12 22:57:05: actioninsert_table_to_rdf 2:config

2012-05-12 22:57:05: actioninsert_table_to_rdf 2:config

2012-05-12 22:57:05: actioninsert_table_to_rdf 2:config

2012-05-12 22:57:05: actioninsert_table_to_rdf 2:config

2012-05-12 22:57:05: actioninsert_table_to_rdf 2:config

2012-05-12 22:57:05: actioninsert_table_to_rdf 2:config

2012-05-12 22:57:05: actioninsert_table_to_rdf 2:config

2012-05-12 22:57:05: actioninsert_table_to_rdf 2:config

2012-05-12 22:57:05: actioninsert_table_to_rdf 2:config

2012-05-12 22:57:05: actioninsert_table_to_rdf 2:config

2012-05-12 22:57:05: actioninsert_table_to_rdf 2:config_plugins

2012-05-12 22:57:05: actioninsert_table_to_rdf 2:config_plugins

2012-05-12 22:57:05: actioninsert_table_to_rdf 2:config_plugins

2012-05-12 22:57:05: actioninsert_table_to_rdf 2:config_plugins

2012-05-12 22:57:05: actioninsert_table_to_rdf 2:config

2012-05-12 22:57:05: actioninsert_table_to_rdf 2:config

2012-05-12 22:57:05: actioninsert_table_to_rdf 2:config

2012-05-12 22:57:05: actioninsert_table_to_rdf 2:config

2012-05-12 22:57:05: actioninsert_table_to_rdf 2:config

2012-05-12 22:57:05: actioninsert_table_to_rdf 2:config

2012-05-12 22:57:05: actioninsert_table_to_rdf 2:config

2012-05-12 22:57:05: actioninsert_table_to_rdf 2:config

2012-05-12 22:57:05: actioninsert_table_to_rdf 2:config

2012-05-12 22:57:05: actioninsert_table_to_rdf 2:config
